<svg id="Group_82" data-name="Group 82" xmlns="http://www.w3.org/2000/svg" viewBox="0 0 12.848 24">
  <defs>
    <style>
      .cls-1 {
        fill: #fff;
      }
    </style>
  </defs>
  <g id="icon-arrow" transform="translate(12.848 24) rotate(180)">
    <path id="Path_204" data-name="Path 204" class="cls-1" d="M1.448,23.752a.829.829,0,0,1-.6.248.829.829,0,0,1-.6-.248.849.849,0,0,1,0-1.2L10.8,12,.248,1.448a.849.849,0,0,1,1.2-1.2L12.6,11.4a.849.849,0,0,1,0,1.2Z"/>
  </g>
</svg>
