<?xml version="1.0" encoding="UTF-8"?>
<svg width="40px" height="40px" viewBox="0 0 40 40" version="1.1" xmlns="http://www.w3.org/2000/svg" xmlns:xlink="http://www.w3.org/1999/xlink">
    <!-- Generator: Sketch 59.1 (86144) - https://sketch.com -->
    <title>checkmark</title>
    <desc>Created with Sketch.</desc>
    <g id="Landings" stroke="none" stroke-width="1" fill="none" fill-rule="evenodd">
        <g id="data_corruption_landing" transform="translate(-250.000000, -691.000000)">
            <g id="checkmark" transform="translate(250.000000, 691.000000)">
                <circle id="Oval" fill="#C7F3BD" cx="20" cy="20" r="20"></circle>
                <path d="M27.2247619,13.8914286 C27.9721503,13.1695767 29.1601615,13.1799002 29.8948925,13.9146313 C30.6296236,14.6493623 30.6399471,15.8373735 29.9180952,16.5847619 L18.4895238,28.0133333 C17.7457146,28.756918 16.5399997,28.756918 15.7961905,28.0133333 L10.0819048,22.2990476 C9.36005293,21.5516593 9.37037643,20.363648 10.1051075,19.628917 C10.8398385,18.894186 12.0278497,18.8838625 12.7752381,19.6057143 L17.1428571,23.9733333 L27.2247619,13.8914286 Z" id="Path" fill="#31E107"></path>
            </g>
        </g>
    </g>
</svg>