<?xml version="1.0" encoding="UTF-8"?>
<svg width="16px" height="14px" viewBox="0 0 16 14" version="1.1" xmlns="http://www.w3.org/2000/svg" xmlns:xlink="http://www.w3.org/1999/xlink">
    <!-- Generator: Sketch 55.2 (78181) - https://sketchapp.com -->
    <title>twitter-icon</title>
    <desc>Created with Sketch.</desc>
    <g id="Share-Numbers-+-block-element" stroke="none" stroke-width="1" fill="none" fill-rule="evenodd">
        <g id="01-1-share" transform="translate(-200.000000, -432.000000)" fill="#ACACAC" fill-rule="nonzero">
            <g id="D" transform="translate(27.000000, 34.000000)">
                <g id="Stats" transform="translate(0.000000, 255.000000)">
                    <g id="Group" transform="translate(15.714286, 56.285714)">
                        <path d="M172.293324,87.2232131 C171.710595,87.6202779 171.05084,87.8808151 170.360334,87.9865505 L170.360334,87.9865505 C169.798894,87.3158567 168.984905,86.9277086 168.126657,86.9214286 C166.35371,86.9936038 164.970988,88.533301 165.033873,90.3653228 C165.033596,90.6218697 165.059512,90.8777311 165.111193,91.1286602 L165.111193,91.1286602 C162.52371,91.0118883 160.121008,89.7105017 158.55621,87.5782538 C157.75528,89.1265322 158.150759,91.0458101 159.492636,92.122774 C159.011142,92.1768086 158.528026,92.0369221 158.143839,91.7322293 C158.063209,93.2980306 159.062382,94.7053932 160.532155,95.0962394 C160.121811,95.260659 159.673921,95.2976786 159.243495,95.2027516 C159.562412,96.5286582 160.688642,97.4790393 162.009818,97.5371438 C160.892365,98.7140073 159.286439,99.2482669 157.714286,98.9661824 C159.147154,99.953232 160.828919,100.484063 162.551055,100.492857 C167.542464,100.492857 171.417035,95.992717 171.210849,90.445207 L171.210849,90.445207 C171.210849,90.445207 171.210849,90.445207 171.210849,90.445207 C171.210849,90.445207 171.210849,90.445207 171.210849,90.3919509 C171.825148,89.9136942 172.337023,89.3092904 172.714286,88.6167476 C172.176635,88.8997378 171.595069,89.0829991 170.996073,89.1581846 C171.624493,88.6799503 172.080912,87.9991581 172.293324,87.2232131 L172.293324,87.2232131 Z" id="twitter-icon"></path>
                    </g>
                </g>
            </g>
        </g>
    </g>
</svg>